
curl -H "Content-Type: application/json" -X POST -d '{"name":"leo", "tipo":"aluno", "rg":"21122", "nUsp" : 564564, "password" : "123456"}' http://localhost:3000/user

curl -H "Content-Type: application/json" -X POST -d '{"rg":"21122", "password" : "12356"}' http://localhost:3000/login

POST CRIA EVENTO
curl -H "Content-Type: application/json" -X POST -d '{"name":"evento da galera", "description":"rolê com os parsa", "userRg":"21122", "local" : "Bloco B", "startTime" : "Hoje às 11:59:59s", "duration":"até amanhã hiihihhi", "campus":"Butantã", "institute":"IME", "spaces":100}' http://localhost:3000/event

GET EVENTO